{
   "pageNumber": 0,
   "pageSize": 10,
   "pageCount": 10,
   "totalElements": 100,
   "items": [
      {
         "id": 1,
         "action": "ReadImporterFile",
         "type": "Info",
         "created": "2024/10/12 13:45",
         "user": "Farhad",
         "filename": "DBH540545.txt",
         "message": "File read successfully."
      },
      {
         "id": 2,
         "action": "WriteFile",
         "type": "Warning",
         "created": "2024/10/13 09:22",
         "user": "Sara",
         "filename": "Logs2024.log",
         "message": "File write completed with warnings."
      },
      {
         "id": 3,
         "action": "DeleteFile",
         "type": "Error",
         "created": "2024/10/14 16:10",
         "user": "Admin",
         "filename": "OldData.csv",
         "message": "File deletion failed: Permission denied."
      },
      {
         "id": 4,
         "action": "UpdateFile",
         "type": "Info",
         "created": "2024/10/15 11:05",
         "user": "Ali",
         "filename": "UserProfiles.docx",
         "message": "File updated with new entries."
      }
   ]
}
